<?xml version="1.0" encoding="UTF-8" standalone="no"?>
<!-- Created with Inkscape (http://www.inkscape.org/) -->

<svg
   xmlns:osb="http://www.openswatchbook.org/uri/2009/osb"
   xmlns:dc="http://purl.org/dc/elements/1.1/"
   xmlns:cc="http://creativecommons.org/ns#"
   xmlns:rdf="http://www.w3.org/1999/02/22-rdf-syntax-ns#"
   xmlns:svg="http://www.w3.org/2000/svg"
   xmlns="http://www.w3.org/2000/svg"
   xmlns:sodipodi="http://sodipodi.sourceforge.net/DTD/sodipodi-0.dtd"
   xmlns:inkscape="http://www.inkscape.org/namespaces/inkscape"
   width="64"
   height="64"
   id="svg4315"
   version="1.1"
   inkscape:version="0.91 r13725"
   viewBox="0 0 64 64"
   sodipodi:docname="icon.svg"
   inkscape:export-filename="C:\Users\graingerr\git\powershell-pulp\icon.png"
   inkscape:export-xdpi="360"
   inkscape:export-ydpi="360">
  <defs
     id="defs4317">
    <linearGradient
       id="linearGradient6382"
       osb:paint="solid">
      <stop
         style="stop-color:#008000;stop-opacity:1;"
         offset="0"
         id="stop6384" />
    </linearGradient>
    <filter
       style="color-interpolation-filters:sRGB"
       inkscape:collect="always"
       id="filter4262"
       x="-0.19924036"
       width="1.3984807"
       y="-0.063234031"
       height="1.1264681">
      <feGaussianBlur
         inkscape:collect="always"
         stdDeviation="1.4048842"
         id="feGaussianBlur4264" />
    </filter>
  </defs>
  <sodipodi:namedview
     id="base"
     pagecolor="#ffffff"
     bordercolor="#666666"
     borderopacity="1.0"
     inkscape:pageopacity="0.0"
     inkscape:pageshadow="2"
     inkscape:zoom="11"
     inkscape:cx="51.511429"
     inkscape:cy="28.399744"
     inkscape:current-layer="layer5"
     showgrid="true"
     inkscape:document-units="px"
     inkscape:grid-bbox="true"
     inkscape:window-width="1920"
     inkscape:window-height="1178"
     inkscape:window-x="1912"
     inkscape:window-y="-8"
     inkscape:window-maximized="1" />
  <metadata
     id="metadata4320">
    <rdf:RDF>
      <cc:Work
         rdf:about="">
        <dc:format>image/svg+xml</dc:format>
        <dc:type
           rdf:resource="http://purl.org/dc/dcmitype/StillImage" />
        <dc:title />
      </cc:Work>
    </rdf:RDF>
  </metadata>
  <g
     id="layer1"
     inkscape:label="Layer 1"
     inkscape:groupmode="layer" />
  <g
     inkscape:groupmode="layer"
     id="layer5"
     inkscape:label="Layer 0">
    <g
       id="g5743">
      <g
         style="fill:#347dbe;fill-opacity:1"
         transform="matrix(0.84210263,0,0,0.84210263,-1.4161685,-1.6769473)"
         id="g4328">
        <path
           id="path4330"
           d="m 63.535,69.992 -57.705,0 c -2.656,0 -4.489,-1.919 -4.095,-4.286 l 8.57,-51.429 c 0.394,-2.367 2.867,-4.286 5.523,-4.286 l 57.706,0 c 2.656,0 4.489,1.919 4.095,4.286 l -8.57,51.429 c -0.395,2.368 -2.868,4.286 -5.524,4.286 z"
           class="st39"
           inkscape:connector-curvature="0"
           style="fill:#347dbe;fill-opacity:1" />
      </g>
      <path
         style="fill:#ffffff"
         inkscape:connector-curvature="0"
         class="st3"
         d="m 16.988827,51.576781 c -0.759577,0 -1.50989,-0.345262 -1.996626,-0.999576 -0.815997,-1.094733 -0.583577,-2.639992 0.518735,-3.450094 l 20.86983,-15.355742 -15.0829,-14.14985 c -0.99705,-0.935576 -1.043365,-2.496835 -0.101895,-3.487989 0.939787,-0.989471 2.511992,-1.035787 3.507358,-0.101053 L 41.943696,30.2059 c 0.534735,0.501894 0.818524,1.212628 0.774734,1.941889 -0.04463,0.729261 -0.410104,1.402101 -1.002102,1.836626 l -23.25298,17.108157 c -0.443788,0.326736 -0.961681,0.484209 -1.474521,0.484209 z"
         id="path4334" />
      <g
         transform="matrix(0.84210263,0,0,0.84210263,-1.4161685,-1.6769473)"
         id="g4336"
         style="">
        <path
           id="path4338"
           d="m 53.425,63.061 -13.677,0 c -1.628,0 -2.947,-1.311 -2.947,-2.93 0,-1.619 1.319,-2.93 2.947,-2.93 l 13.677,0 c 1.628,0 2.947,1.311 2.947,2.93 0,1.619 -1.319,2.93 -2.947,2.93 z"
           class="st3"
           inkscape:connector-curvature="0"
           style="fill:#ffffff" />
      </g>
      <g
         transform="matrix(0.84210263,0,0,0.84210263,-1.4161685,-1.6769473)"
         id="g4340"
         class="st40"
         style="opacity:0.25">
        <path
           id="path4342"
           d="m 73.534,10 -57.706,0 c -1.989,0 -3.875,1.073 -4.862,2.608 14.351,13.69 43.242,41.971 56.943,55.406 0.59,-0.667 1.008,-1.521 1.15,-2.371 l 8.57,-51.344 C 78.023,11.932 76.19,10 73.534,10 Z"
           class="st3"
           inkscape:connector-curvature="0"
           style="fill:#ffffff" />
      </g>
      <path
         inkscape:connector-curvature="0"
         id="path4936"
         d="m 42.214543,24.138887 c -2.396079,-0.675518 -4.091734,-2.119844 -5.262453,-4.482454 -0.760611,-1.534979 -1.083541,-3.149154 -0.831176,-4.154657 0.107329,-0.42763 0.151922,-0.442838 0.791278,-0.269843 1.041239,0.281734 2.48671,1.170821 3.641103,2.239585 1.168462,1.08179 1.895779,2.456896 2.212742,4.183536 0.105111,0.572586 0.230823,1.244268 0.279362,1.492626 0.06845,0.350277 0.178236,0.147714 0.489447,-0.90312 1.178204,-3.978335 3.305425,-7.229529 5.96335,-9.114237 2.572268,-1.823969 6.234354,-3.170563 8.998769,-3.3089571 l 1.761084,-0.088167 0,0.8893211 c 0,1.312216 -0.459957,2.853167 -1.35255,4.531323 -1.036478,1.948667 -2.065109,3.264142 -3.940549,5.039402 -2.651782,2.510134 -6.153265,3.963401 -9.969633,4.137831 -1.287102,0.05883 -2.086334,0.0036 -2.780774,-0.19219 z"
         style="fill:#04ae19;fill-opacity:1" />
      <path
         inkscape:connector-curvature="0"
         id="path3354"
         d="m 46.431455,46.401635 -9.194886,-9.016546 2.499898,-1.857584 c 1.374944,-1.021669 2.613326,-2.072872 2.751962,-2.336007 0.356344,-0.676349 0.313444,-1.838474 -0.09091,-2.462636 -0.615258,-0.949718 -17.676812,-16.831523 -18.4675,-17.190534 -0.958397,-0.435159 -1.797544,-0.27977 -2.635323,0.487997 -0.508475,0.465983 -0.659362,0.761341 -0.735918,1.440544 -0.05304,0.470595 -0.0018,1.082583 0.114133,1.362409 0.115738,0.279417 3.647129,3.729426 7.847535,7.666687 4.200408,3.93726 7.613928,7.221966 7.5856,7.299344 -0.02832,0.07738 -0.619518,0.553838 -1.313758,1.058802 l -1.262256,0.918116 -2.010471,-1.951996 C 28.291531,28.686087 12.061703,12.964265 9.8567015,10.835436 L 7.8406756,8.8890538 8.4930651,8.2544749 C 8.8518793,7.9054565 9.5136364,7.4535799 9.9636364,7.2503047 10.773515,6.8844643 11.039398,6.8806729 36.162313,6.8767204 l 25.380492,-0.00399 0.801326,0.4160042 c 0.600745,0.3118754 0.913247,0.6401918 1.248465,1.3116534 l 0.447142,0.895646 -3.691789,22.188346 c -3.510658,21.099718 -4.014831,23.733802 -4.542738,23.733802 -0.09838,0 -4.316571,-4.057446 -9.373756,-9.016547 z m 0.777332,-22.272597 c 1.62748,-0.257004 3.851464,-1.108906 5.376753,-2.059577 4.234995,-2.639557 7.741733,-7.886957 7.741733,-11.584549 l 0,-0.8568704 -1.409091,0.095284 c -4.009517,0.271126 -8.335609,2.1160144 -10.92078,4.6572314 -1.907235,1.874807 -3.376673,4.372026 -4.408618,7.49217 L 43.167845,23.145455 42.845453,21.74924 C 42.379067,19.729428 41.856847,18.743609 40.588,17.487735 c -1.09286,-1.081684 -3.361236,-2.43319 -4.083885,-2.43319 -1.01279,0 -0.546635,3.054524 0.818552,5.363637 0.836937,1.415617 2.08156,2.558809 3.52356,3.236403 1.678822,0.788879 3.507802,0.925265 6.36256,0.474453 z"
         style="fill:#a0a0a0;stroke:none;stroke-width:1px;stroke-linecap:butt;stroke-linejoin:miter;stroke-opacity:1" />
      <g
         transform="matrix(0.23496484,0,0,0.23496484,41.88034,23.397279)"
         id="g5686"
         style="">
        <path
           sodipodi:nodetypes="ssscs"
           inkscape:connector-curvature="0"
           id="path3466"
           d="m -97.727778,4.5580132 c 0,13.8071008 -11.192852,24.9999678 -25.000002,24.9999678 -13.80703,0 -25,-11.192867 -25,-24.9999678 0,-13.8071115 25,-36.8644492 25,-56.6614472 0,19.779648 25.000002,42.8543357 25.000002,56.6614472 z"
           style="display:inline;fill:#ff0000;fill-opacity:1;stroke:none" />
        <path
           style="display:inline;fill:#ff9507;fill-opacity:1;stroke:none"
           d="m -97.727778,4.5580132 c 0,13.8071008 -11.192852,24.9999678 -25.000002,24.9999678 -13.80703,0 -25,-11.192867 -25,-24.9999678 0,-13.8071115 25,-36.8644492 25,-56.6614472 0,19.779648 25.000002,42.8543357 25.000002,56.6614472 z"
           id="path4236"
           inkscape:connector-curvature="0"
           sodipodi:nodetypes="ssscs" />
        <path
           style="display:inline;fill:#ffffff;stroke:none;filter:url(#filter4262)"
           d="m 1204.0625,-28.46875 c 12.4738,-10.829294 9.3667,-20.747748 1.5574,-32.864004 -6.7073,-10.40663 -8.0297,-15.133748 -10.0844,-20.457319 2.9218,9.566461 5.6752,15.803058 8.2899,21.375008 5.1581,10.992175 5.54,20.900963 0.2371,31.946315 z"
           id="path3451"
           inkscape:connector-curvature="0"
           sodipodi:nodetypes="cscsc"
           transform="matrix(1.0553822,0,0,1.0553822,-1381.9485,52.304972)" />
      </g>
      <path
         inkscape:connector-curvature="0"
         id="path3356"
         d="M 51.733978,51.463636 C 44.439325,44.40258 37.418182,37.511275 37.418182,37.412573 c 0,-0.05414 0.838636,-0.725568 1.863636,-1.492069 1.025,-0.766504 2.211364,-1.71546 2.636364,-2.108797 0.736213,-0.68136 0.772727,-0.764449 0.772727,-1.758372 l 0,-1.04322 -1.5,-1.544624 C 38.938685,27.146264 29.782696,18.584482 25.726152,15.004366 23.805419,13.309218 23.12968,13.010502 22.141588,13.419783 c -0.298794,0.123765 -0.788339,0.504155 -1.087879,0.845312 -0.45154,0.514276 -0.544618,0.777593 -0.544618,1.540728 0,0.888786 0.04221,0.964442 1.227273,2.19975 0.675,0.703619 4.152272,4.056492 7.727272,7.450829 3.575,3.394338 6.5,6.237229 6.5,6.317534 0,0.161524 -1.847545,1.597157 -2.258223,1.754748 C 33.537451,33.593138 29.328929,29.638367 21.750373,22.29447 15.317668,16.060943 9.5636364,10.488467 8.9636364,9.9111898 L 7.8727273,8.861594 8.5090909,8.3015427 c 0.35,-0.3080281 1.0045455,-0.730849 1.4545455,-0.939602 C 10.778762,6.9838075 10.876547,6.9821517 36.145455,6.9186001 l 25.363636,-0.06379 0.72084,0.4202258 c 0.400198,0.2333018 0.954765,0.7985908 1.246731,1.2708323 l 0.525889,0.8506067 -3.209342,19.2099091 c -3.089909,18.49502 -4.283924,25.218485 -4.649105,26.178987 -0.09431,0.248045 -0.248219,0.450993 -0.342028,0.450993 -0.09381,0 -1.924452,-1.697728 -4.068098,-3.772728 z M 46.150224,24.32187 c 1.811752,-0.220161 3.416585,-0.697196 5.177049,-1.538872 4.519938,-2.160979 8.713042,-7.681266 8.962711,-11.799552 l 0.08698,-1.4347353 -1.518933,0.1324982 C 54.511425,10.060368 50.307584,11.953584 47.680485,14.71506 45.883356,16.604112 44.704067,18.599527 43.6837,21.477816 l -0.504556,1.423271 -0.335651,-1.3217 c -0.430646,-1.695769 -0.900544,-2.654228 -1.805073,-3.681827 -1.26396,-1.435933 -4.055971,-3.063564 -4.779151,-2.786054 -0.39366,0.151062 -0.394856,1.542801 -0.0025,2.864585 0.996521,3.356796 3.257476,5.59542 6.325338,6.262867 1.40144,0.304899 1.686742,0.311529 3.568078,0.08291 l -7e-6,0 z"
         style="fill:#ff9507;fill-opacity:1;stroke:none;stroke-width:1px;stroke-linecap:butt;stroke-linejoin:miter;stroke-opacity:1" />
    </g>
  </g>
  <style
     id="style4324"
     type="text/css">
	.st0{fill:#59B4D9;}
	.st1{fill:#8B6AB1;}
	.st2{fill:#5C2D91;}
	.st3{fill:#FFFFFF;}
	.st4{fill:#107C10;}
	.st5{fill:#004B1C;}
	.st6{fill:#3772A4;}
	.st7{fill:#FFDA4B;}
	.st8{fill:#699F63;}
	.st9{fill-rule:evenodd;clip-rule:evenodd;fill:#333333;}
	.st10{fill-rule:evenodd;clip-rule:evenodd;fill:#699F63;}
	.st11{clip-path:url(#XMLID_5_);}
	.st12{fill:none;}
	.st13{fill:url(#SVGID_1_);}
	.st14{fill:url(#SVGID_2_);}
	.st15{fill:url(#SVGID_3_);}
	.st16{fill:url(#SVGID_4_);}
	.st17{fill:url(#SVGID_5_);}
	.st18{fill:url(#SVGID_6_);}
	.st19{opacity:0.97;fill:#5382A1;}
	.st20{opacity:0.97;fill:#E76F00;}
	.st21{fill-rule:evenodd;clip-rule:evenodd;fill:url(#SVGID_7_);}
	.st22{fill-rule:evenodd;clip-rule:evenodd;fill:url(#SVGID_8_);}
	.st23{fill-rule:evenodd;clip-rule:evenodd;fill:url(#SVGID_9_);}
	.st24{fill-rule:evenodd;clip-rule:evenodd;fill:url(#SVGID_10_);}
	.st25{fill-rule:evenodd;clip-rule:evenodd;fill:url(#SVGID_11_);}
	.st26{fill-rule:evenodd;clip-rule:evenodd;fill:url(#SVGID_12_);}
	.st27{fill-rule:evenodd;clip-rule:evenodd;fill:url(#SVGID_13_);}
	.st28{fill-rule:evenodd;clip-rule:evenodd;fill:url(#SVGID_14_);}
	.st29{fill-rule:evenodd;clip-rule:evenodd;fill:#FFFFFF;}
	.st30{fill-rule:evenodd;clip-rule:evenodd;fill:url(#SVGID_15_);}
	.st31{fill-rule:evenodd;clip-rule:evenodd;fill:url(#SVGID_16_);}
	.st32{fill-rule:evenodd;clip-rule:evenodd;fill:url(#SVGID_17_);}
	.st33{fill-rule:evenodd;clip-rule:evenodd;fill:url(#SVGID_18_);}
	.st34{fill-rule:evenodd;clip-rule:evenodd;fill:#AA3E35;}
	.st35{fill-rule:evenodd;clip-rule:evenodd;fill:url(#SVGID_19_);}
	.st36{fill-rule:evenodd;clip-rule:evenodd;fill:url(#SVGID_20_);}
	.st37{fill-rule:evenodd;clip-rule:evenodd;fill:url(#SVGID_21_);}
	.st38{fill-rule:evenodd;clip-rule:evenodd;fill:url(#SVGID_22_);}
	.st39{fill:#0078D7;}
	.st40{opacity:0.25;}
	.st41{fill:#505050;}
	.st42{fill:#A0A1A2;}
	.st43{fill:#7A7A7A;}
	.st44{fill:#B8D432;}
	.st45{opacity:0.2;fill:#FFFFFF;enable-background:new    ;}
	.st46{fill:#3E3E3E;}
	.st47{fill:#BAD80A;}
	.st48{opacity:0.34;fill:#FFFFFF;enable-background:new    ;}
	.st49{opacity:0.5;fill:#1E1E1E;enable-background:new    ;}
	.st50{fill:#231F20;}
	.st51{fill-rule:evenodd;clip-rule:evenodd;fill:#394D54;}
	.st52{fill:#00AADA;}
	.st53{fill:#24B8EB;}
	.st54{fill:#008BB8;}
	.st55{fill:#039BC6;}
	.st56{display:none;}
	.st57{display:inline;fill:#394D54;}
	.st58{fill-rule:evenodd;clip-rule:evenodd;fill:#00ACD3;}
	.st59{fill-rule:evenodd;clip-rule:evenodd;fill:#20C2EF;}
	.st60{fill-rule:evenodd;clip-rule:evenodd;fill:#D4EDF1;}
	.st61{fill:#BFDBE0;}
	.st62{fill:#D4EDF1;}
</style>
</svg>
